{
    "name": "dune",
    "title": "Dune: Adventures in the Imperium",
    "version": "1.1.0",
    "templateVersion": 13,
    "author": "Bastien Durel",
    "minimumCoreVersion": "0.8.6",
    "compatibleCoreVersion": "0.8.7",
    "scripts": [
	"scripts/dune.js"
    ],
    "esmodules": [
	"modules/dune.mjs"
    ],
    "styles": [
	"styles/dune.css"
    ],
    "dependencies": [
        {
            "name": "_chatcommands",
            "type": "module",
            "manifest": "https://github.com/League-of-Foundry-Developers/Chat-Commands-Lib/releases/download/1.2.0/module.json"
        }
    ],
    "packs": [
	{
	    "name": "talents",
	    "label": "Talents",
	    "system": "dune",
	    "module": "dune",
	    "path": "packs/talents.db",
	    "entity": "Item"
	}
    ],
    "socket": true,
    "languages": [
	{
	    "lang": "en",
	    "name": "English",
	    "path": "lang/en.json"
	},
	{
	    "lang": "fr",
	    "name": "français",
	    "path": "lang/fr.json"
	}
    ],
    "url": "https://gitlab.com/fvtt-modiphius/foundryvtt-dune-system",
    "manifest": "https://gitlab.com/api/v4/projects/26058898/packages/generic/foundryvtt-dune-system/latest/system.json"
}
